<?xml version="1.0" standalone="no"?>
<!DOCTYPE svg PUBLIC "-//W3C//DTD SVG 1.1//EN" "http://www.w3.org/Graphics/SVG/1.1/DTD/svg11.dtd">
<!--Generator: Xara Designer (www.xara.com), SVG filter version: 6.0.0.4-->
<svg stroke-width="0.501" stroke-linejoin="bevel" fill-rule="evenodd" xmlns:xlink="http://www.w3.org/1999/xlink" xmlns="http://www.w3.org/2000/svg" version="1.1" overflow="visible" width="36.819pt" height="8.978pt" viewBox="0 0 36.819 8.978">
 <defs>
	</defs>
 <g id="Document" fill="none" stroke="black" font-family="Times New Roman" font-size="16" transform="scale(1 -1)">
  <g id="Spread" transform="translate(0 -8.978)">
   <g id="Layer 1">
    <path d="M 4.677,0.706 L 0.844,4.539 L 4.677,8.372 L 7.76,5.289 L 15.273,5.289 L 18.356,8.372 L 21.439,5.289 L 28.951,5.289 L 32.034,8.372 L 35.867,4.539 L 32.034,0.706 L 28.951,3.789 L 21.439,3.789 L 18.356,0.706 L 15.273,3.789 L 7.76,3.789 L 4.677,0.706 Z" stroke-width="0.5" stroke="none" fill="#7f0000" fill-rule="evenodd" marker-start="none" marker-end="none" stroke-miterlimit="79.8403193612775"/>
   </g>
  </g>
 </g>
</svg>
